Compare clusters using hypergeometric test — hc_cluster_compare • HPAclusteR
…
# Compare clusters between the two results
hc_cluster_compare(adata_res_a, adata_res_b)
#> 0.00% of genes do not match between the two datasets.
#> Warning: The `size` argument of `element_line()` is deprecated as of ggplot2 3.4.0.
#> ℹ Please use the `linewidth` argument instead.
#> ℹ The deprecated feature was likely used in the HPAclusteR package.
#>   Please report the issue at
#>   <https://github.com/buenoalvezm/HPAclusteR/issues>.
#> $matches
#> # A tibble: 42 × 8
#>    cluster_A cluster_B n_genes_A n_genes_B n_overlap percentage_overlap    p_val
#>    <chr>     <chr>         <int>     <int>     <int>              <dbl>    <dbl>
#>  1 1         1                36        45        36              100   1.26e-57
#>  2 10        10               19        18        18              100   2.01e-37
#>  3 11        11               28        30        28              100   3.35e-52
#>  4 12        4                21        19        18               94.7 2.67e-34
#>  5 13        13               12         7         7              100   4.66e-15
#>  6 13        3                12        45         4               33.3 1.46e- 3
#>  7 14        16               24        21        21              100   1.92e-40
#>  8 15        18               26        27        26              100   2.50e-50
#>  9 16        19                7        26         4               57.1 1.29e- 5
#> 10 16        27                7        33         2               28.6 2.07e- 2
#> # ℹ 32 more rows
#> # ℹ 1 more variable: adj_p_val <dbl>
…
