Calculate ARI scores for multiple clustering seeds — hc_cluster_stability • HPAclusteR
…
#> 
#> $ari_scores
#> # A tibble: 4,950 × 3
#> # Groups:   seed1, seed2 [4,950]
#>    seed1 seed2   ARI
#>    <int> <int> <dbl>
#>  1     1     2 0.904
#>  2     1     3 0.918
#>  3     1     4 0.903
#>  4     1     5 0.932
#>  5     1     6 0.841
#>  6     1     7 0.882
#>  7     1     8 0.903
#>  8     1     9 0.884
#>  9     1    10 0.879
#> 10     1    11 0.865
#> # ℹ 4,940 more rows
…
