…
#> 
#> $ari_scores
#> # A tibble: 4,950 × 3
#> # Groups:   seed1, seed2 [4,950]
#>    seed1 seed2   ARI
#>    <int> <int> <dbl>
#>  1     1     2 0.979
#>  2     1     3 0.962
#>  3     1     4 0.990
#>  4     1     5 0.949
#>  5     1     6 0.954
#>  6     1     7 0.963
#>  7     1     8 0.953
#>  8     1     9 0.974
#>  9     1    10 0.939
#> 10     1    11 0.979
#> # ℹ 4,940 more rows
…
